{"code":200,"message":"SUCCESS","data":{"content":[{"objectId":"15707017562b22d21f73e188","userName":"程龙","phone":"15707017562","createdAt":"2021-08-08T11:23:11.000+0000","cardExpiryDate":"2021-09-08T11:34:51.000+0000","groupId":152,"groupName":"个人单租电池套餐","packagePay":null,"walletPay":null,"depositedMount":50000,"depositedPayAt":"2021-08-08 19:32:39","paidAt":"2021-08-08T11:34:50.000+0000"},{"objectId":"177590582354e130442eaad5","userName":"林松贵","phone":"17759058235","createdAt":"2021-08-03T08:42:28.000+0000","cardExpiryDate":"2021-09-03T08:50:51.000+0000","groupId":152,"groupName":"个人单租电池套餐","packagePay":null,"walletPay":null,"depositedMount":50000,"depositedPayAt":"2021-08-03 16:49:32","paidAt":"2021-08-03T08:50:50.000+0000"},{"objectId":"135242550074864ce87ae489","userName":"李丽勇","phone":"13524255007","createdAt":"2021-07-31T08:43:55.000+0000","cardExpiryDate":"2021-08-31T11:50:31.000+0000","groupId":160,"groupName":"中昱德车＋电组合套餐","packagePay":null,"walletPay":null,"depositedMount":50000,"depositedPayAt":"2021-07-31 17:58:14","paidAt":"2021-07-31T11:50:30.000+0000"},{"objectId":"150600518715c02a18a12a78","userName":"叶昆群","phone":"15060051871","createdAt":"2021-07-30T10:57:00.000+0000","cardExpiryDate":"2021-08-30T11:50:14.000+0000","groupId":152,"groupName":"个人单租电池套餐","packagePay":null,"walletPay":null,"depositedMount":50000,"depositedPayAt":"2021-07-30 19:49:27","paidAt":"2021-07-30T11:50:13.000+0000"},{"objectId":"181060322669a9a67db78f22","userName":"廖旭","phone":"18106032266","createdAt":"2021-07-30T03:09:58.000+0000","cardExpiryDate":"2021-08-30T03:26:06.000+0000","groupId":152,"groupName":"个人单租电池套餐","packagePay":null,"walletPay":null,"depositedMount":50000,"depositedPayAt":"2021-07-30 11:24:29","paidAt":"2021-07-30T03:26:05.000+0000"},{"objectId":"18605990331fb5f1e010d062","userName":"叶铃铃","phone":"18605990331","createdAt":"2021-07-29T05:41:22.000+0000","cardExpiryDate":"2021-08-29T05:48:40.000+0000","groupId":152,"groupName":"个人单租电池套餐","packagePay":null,"walletPay":null,"depositedMount":50000,"depositedPayAt":"2021-07-29 13:45:47","paidAt":"2021-07-29T05:48:39.000+0000"},{"objectId":"17159208244e5e3186990c61","userName":"陈广","phone":"17159208244","createdAt":"2021-07-26T03:43:48.000+0000","cardExpiryDate":"2021-08-26T07:21:07.000+0000","groupId":173,"groupName":"速达配送车+电组合套餐","packagePay":null,"walletPay":null,"depositedMount":50000,"depositedPayAt":"2021-07-26 11:54:08","paidAt":"2021-07-26T07:21:06.000+0000"},{"objectId":"1565170850530241466c3ed5","userName":"余光亮","phone":"15651708505","createdAt":"2021-07-25T09:22:03.000+0000","cardExpiryDate":"2021-08-25T13:38:40.000+0000","groupId":153,"groupName":"个人车＋电组合套餐","packagePay":null,"walletPay":null,"depositedMount":50000,"depositedPayAt":"2021-07-25 21:37:16","paidAt":"2021-07-25T13:38:40.000+0000"},{"objectId":"13107658565e91bf7f8a35a1","userName":"涂洪伟","phone":"13107658565","createdAt":"2021-07-23T04:18:13.000+0000","cardExpiryDate":"2021-08-23T04:40:28.000+0000","groupId":152,"groupName":"个人单租电池套餐","packagePay":null,"walletPay":null,"depositedMount":50000,"depositedPayAt":"2021-07-23 12:39:08","paidAt":"2021-07-23T04:40:28.000+0000"},{"objectId":"15980743234fbbee8500b162","userName":"许俊洲","phone":"15980743234","createdAt":"2021-07-22T03:48:58.000+0000","cardExpiryDate":"2021-08-22T04:14:41.000+0000","groupId":152,"groupName":"个人单租电池套餐","packagePay":null,"walletPay":null,"depositedMount":50000,"depositedPayAt":"2021-07-22 12:13:21","paidAt":"2021-07-22T04:14:40.000+0000"}],"first":true,"last":false,"totalPage":2,"totalElements":16,"pageSize":10,"pageNumber":0}}