{"code":200,"message":"SUCCESS","data":{"content":[{"objectId":"18350812090f4ecc76eea4bf","userName":"董祖敏","phone":"18350812090","createdAt":"2021-07-29T13:46:11.000+0000","cardExpiryDate":"2021-09-05T11:11:15.000+0000","groupId":160,"groupName":"中昱德车＋电组合套餐","packagePay":null,"walletPay":null,"depositedMount":null,"depositedPayAt":null,"paidAt":null},{"objectId":"177590582354e130442eaad5","userName":"林松贵","phone":"17759058235","createdAt":"2021-08-03T08:42:28.000+0000","cardExpiryDate":"2021-09-03T08:50:51.000+0000","groupId":152,"groupName":"个人单租电池套餐","packagePay":null,"walletPay":null,"depositedMount":50000,"depositedPayAt":null,"paidAt":null},{"objectId":"132772923726710f8bcfa895","userName":"张凯","phone":"13277292372","createdAt":"2021-08-03T04:12:24.000+0000","cardExpiryDate":"2021-09-03T04:27:54.000+0000","groupId":160,"groupName":"中昱德车＋电组合套餐","packagePay":null,"walletPay":null,"depositedMount":null,"depositedPayAt":null,"paidAt":null},{"objectId":"18860111080086a9c1c12165","userName":"詹金雯","phone":"18860111080","createdAt":"2021-08-02T07:29:11.000+0000","cardExpiryDate":"2021-09-03T02:41:03.000+0000","groupId":160,"groupName":"中昱德车＋电组合套餐","packagePay":null,"walletPay":null,"depositedMount":null,"depositedPayAt":null,"paidAt":null},{"objectId":"182501682024598da5704fc0","userName":"王建庭","phone":"18250168202","createdAt":"2021-08-01T07:35:10.000+0000","cardExpiryDate":"2021-09-01T07:52:16.000+0000","groupId":155,"groupName":"饿了么车＋电组合套餐","packagePay":null,"walletPay":null,"depositedMount":null,"depositedPayAt":null,"paidAt":null},{"objectId":"135242550074864ce87ae489","userName":"李丽勇","phone":"13524255007","createdAt":"2021-07-31T08:43:55.000+0000","cardExpiryDate":"2021-08-31T11:50:31.000+0000","groupId":160,"groupName":"中昱德车＋电组合套餐","packagePay":null,"walletPay":null,"depositedMount":50000,"depositedPayAt":null,"paidAt":null},{"objectId":"150600518715c02a18a12a78","userName":"叶昆群","phone":"15060051871","createdAt":"2021-07-30T10:57:00.000+0000","cardExpiryDate":"2021-08-30T11:50:14.000+0000","groupId":152,"groupName":"个人单租电池套餐","packagePay":null,"walletPay":null,"depositedMount":50000,"depositedPayAt":null,"paidAt":null},{"objectId":"181060322669a9a67db78f22","userName":"廖旭","phone":"18106032266","createdAt":"2021-07-30T03:09:58.000+0000","cardExpiryDate":"2021-08-30T03:26:06.000+0000","groupId":152,"groupName":"个人单租电池套餐","packagePay":null,"walletPay":null,"depositedMount":50000,"depositedPayAt":null,"paidAt":null},{"objectId":"17750212503c4719c9731c0a","userName":"叶琳烁","phone":"17750212503","createdAt":"2021-07-29T07:01:25.000+0000","cardExpiryDate":"2021-08-30T02:39:30.000+0000","groupId":159,"groupName":"中昱德团签","packagePay":null,"walletPay":null,"depositedMount":null,"depositedPayAt":null,"paidAt":null},{"objectId":"136859197204fdb0e73b6832","userName":"吴正轩","phone":"13685919720","createdAt":"2021-07-29T06:36:25.000+0000","cardExpiryDate":"2021-08-19T03:30:20.000+0000","groupId":160,"groupName":"中昱德车＋电组合套餐","packagePay":null,"walletPay":null,"depositedMount":null,"depositedPayAt":null,"paidAt":null}],"first":true,"last":false,"totalPage":23,"totalElements":225,"pageSize":10,"pageNumber":0}}