{"code":200,"message":"SUCCESS","data":{"content":[{"name":"味美轩海鲜刺身","address":"福建省福州市晋安区岳峰镇斗哥沙县小吃三利花园","cabinetSN":"ZCAWDEC0L750W071","activedDate":"2021-07-28T07:01:04.000+0000","setDate":"2021-07-28T07:14:31.000+0000","exchangeSum":142,"monthExchangeSum":0},{"name":"连江南路347号","address":"福建省福州市仓山区盖山镇连江南路","cabinetSN":"ZCAWDEC0L750W081","activedDate":"2021-07-22T01:57:50.000+0000","setDate":"2021-07-22T03:58:13.000+0000","exchangeSum":161,"monthExchangeSum":0},{"name":"古塘垅新村三行站点","address":"福建省厦门市湖里区殿前街道马垄路315号古塘垅新村","cabinetSN":"ZCAWDEC0L750W024","activedDate":"2021-07-20T06:46:43.000+0000","setDate":"2021-07-20T07:21:43.000+0000","exchangeSum":39,"monthExchangeSum":0},{"name":"金星大楼","address":"福建省福州市仓山区仓山镇香港利达(福州)彩印有限公司金星大楼","cabinetSN":"ZCAWDEC0L750W080","activedDate":"2021-07-20T03:45:06.000+0000","setDate":"2021-07-20T06:32:33.000+0000","exchangeSum":137,"monthExchangeSum":0},{"name":"余盛江西小炒","address":"福建省福州市闽侯县上街镇开心旅社","cabinetSN":"ZCAWDEC0L750W077","activedDate":"2021-07-18T05:24:32.000+0000","setDate":"2021-07-18T05:37:02.000+0000","exchangeSum":155,"monthExchangeSum":0},{"name":"闽侯甘蔗育才路10栋","address":"福建省福州市闽侯县甘蔗街道启航教育(文博花园东南)闽侯县实验小学昙石分校","cabinetSN":"ZCAWDEC0L750W076","activedDate":"2021-07-12T02:06:12.000+0000","setDate":"2021-07-12T03:25:40.000+0000","exchangeSum":130,"monthExchangeSum":0},{"name":"永辉超市鹤林店","address":"香港特别行政区离岛区香港国际机场","cabinetSN":"ZCAWDEC0L750W059","activedDate":"2021-07-10T04:21:08.000+0000","setDate":"2021-07-10T04:25:25.000+0000","exchangeSum":259,"monthExchangeSum":0},{"name":"黄山物流园门口修车店","address":"福建省福州市仓山区城门镇福峡路102号黄山物流园","cabinetSN":"ZCAWDEC0L750W062","activedDate":"2021-07-09T11:53:13.000+0000","setDate":"2021-07-09T12:33:38.000+0000","exchangeSum":26,"monthExchangeSum":0},{"name":"屿浦新苑","address":"福建省福州市仓山区盖山镇格林豪泰智选酒店屿浦新苑","cabinetSN":"ZCAWDEC0L750W029","activedDate":"2021-07-09T04:06:01.000+0000","setDate":"2021-07-09T04:15:19.000+0000","exchangeSum":67,"monthExchangeSum":0},{"name":"台江区中联大药房","address":"福建省福州市台江区新港街道六一中路277-9号武夷嘉园(雁塔四巷)","cabinetSN":"ZCAWDEC0L750W056","activedDate":"2021-07-04T07:40:45.000+0000","setDate":"2021-07-04T08:03:20.000+0000","exchangeSum":103,"monthExchangeSum":0}],"first":true,"last":false,"totalPage":3,"totalElements":28,"pageSize":10,"pageNumber":0}}