{"code":200,"message":"SUCCESS","data":{"content":[{"objectId":"15707017562b22d21f73e188","userName":"程龙","phone":"15707017562","createdAt":"2021-08-08T11:23:11.000+0000","cardExpiryDate":"2021-09-08T11:34:51.000+0000","groupId":152,"groupName":"个人单租电池套餐","packagePay":null,"walletPay":null,"depositedMount":50000,"depositedPayAt":null,"paidAt":null},{"objectId":"135998441359549880b35713","userName":"余榕","phone":"13599844135","createdAt":"2021-08-07T08:10:12.000+0000","cardExpiryDate":"2021-09-07T09:27:46.000+0000","groupId":163,"groupName":"七十迈车＋电组合套餐","packagePay":null,"walletPay":null,"depositedMount":null,"depositedPayAt":null,"paidAt":null},{"objectId":"1726802034713193be813c65","userName":"叶松桃","phone":"17268020347","createdAt":"2021-08-07T07:03:57.000+0000","cardExpiryDate":"2021-09-07T07:50:50.000+0000","groupId":155,"groupName":"饿了么车＋电组合套餐","packagePay":null,"walletPay":null,"depositedMount":null,"depositedPayAt":null,"paidAt":null},{"objectId":"1506003582634e486285df40","userName":"林灏","phone":"15060035826","createdAt":"2021-08-07T06:58:15.000+0000","cardExpiryDate":"2021-09-07T07:14:26.000+0000","groupId":155,"groupName":"饿了么车＋电组合套餐","packagePay":null,"walletPay":null,"depositedMount":null,"depositedPayAt":null,"paidAt":null},{"objectId":"18350812090f4ecc76eea4bf","userName":"董祖敏","phone":"18350812090","createdAt":"2021-07-29T13:46:11.000+0000","cardExpiryDate":"2021-09-05T11:11:15.000+0000","groupId":160,"groupName":"中昱德车＋电组合套餐","packagePay":null,"walletPay":null,"depositedMount":null,"depositedPayAt":null,"paidAt":null},{"objectId":"177590582354e130442eaad5","userName":"林松贵","phone":"17759058235","createdAt":"2021-08-03T08:42:28.000+0000","cardExpiryDate":"2021-09-03T08:50:51.000+0000","groupId":152,"groupName":"个人单租电池套餐","packagePay":null,"walletPay":null,"depositedMount":50000,"depositedPayAt":null,"paidAt":null},{"objectId":"132772923726710f8bcfa895","userName":"张凯","phone":"13277292372","createdAt":"2021-08-03T04:12:24.000+0000","cardExpiryDate":"2021-09-03T04:27:54.000+0000","groupId":160,"groupName":"中昱德车＋电组合套餐","packagePay":null,"walletPay":null,"depositedMount":null,"depositedPayAt":null,"paidAt":null},{"objectId":"18860111080086a9c1c12165","userName":"詹金雯","phone":"18860111080","createdAt":"2021-08-02T07:29:11.000+0000","cardExpiryDate":"2021-09-03T02:41:03.000+0000","groupId":160,"groupName":"中昱德车＋电组合套餐","packagePay":null,"walletPay":null,"depositedMount":null,"depositedPayAt":null,"paidAt":null},{"objectId":"182501682024598da5704fc0","userName":"王建庭","phone":"18250168202","createdAt":"2021-08-01T07:35:10.000+0000","cardExpiryDate":"2021-09-01T07:52:16.000+0000","groupId":155,"groupName":"饿了么车＋电组合套餐","packagePay":null,"walletPay":null,"depositedMount":null,"depositedPayAt":null,"paidAt":null},{"objectId":"135242550074864ce87ae489","userName":"李丽勇","phone":"13524255007","createdAt":"2021-07-31T08:43:55.000+0000","cardExpiryDate":"2021-08-31T11:50:31.000+0000","groupId":160,"groupName":"中昱德车＋电组合套餐","packagePay":null,"walletPay":null,"depositedMount":50000,"depositedPayAt":null,"paidAt":null}],"first":true,"last":false,"totalPage":25,"totalElements":250,"pageSize":10,"pageNumber":0}}